Palmer Penguins
…
rf_clf <- rand_forest(mode = "classification") %>% 
  set_engine("ranger") %>% 
  fit(formula = species ~ bill_length_mm + bill_depth_mm + flipper_length_mm + body_mass_g,
      data = training(train_test_split))

pred <- testing(train_test_split) %>% 
  predict(rf_clf, new_data = .) 

models_res <- models_res %>% 
  bind_cols(pred) %>% 
  rename(rf = .pred_class)

models_res

## # A tibble: 65 x 6
##    actual multinom_reg knn    svm    dt     rf    
##    <fct>  <fct>        <fct>  <fct>  <fct>  <fct> 
##  1 Adelie Adelie       Adelie Adelie Adelie Adelie
##  2 Adelie Adelie       Adelie Adelie Adelie Adelie
##  3 Adelie Adelie       Adelie Adelie Adelie Adelie
##  4 Adelie Adelie       Adelie Adelie Adelie Adelie
##  5 Adelie Adelie       Adelie Adelie Adelie Adelie
##  6 Adelie Adelie       Adelie Adelie Adelie Adelie
##  7 Adelie Adelie       Adelie Adelie Adelie Adelie
##  8 Adelie Adelie       Adelie Adelie Adelie Adelie
##  9 Adelie Adelie       Adelie Adelie Adelie Adelie
## 10 Adelie Adelie       Adelie Adelie Adelie Adelie
## # ... with 55 more rows
…
